<?xml version="1.0" encoding="UTF-8"?>
<!DOCTYPE svg PUBLIC "-//W3C//DTD SVG 1.1//EN" "http://www.w3.org/Graphics/SVG/1.1/DTD/svg11.dtd">
<svg version="1.1" id="Layer_3" xmlns="http://www.w3.org/2000/svg" xmlns:xlink="http://www.w3.org/1999/xlink" x="0px" y="0px" width="864px" height="864px" viewBox="0 0 864 864" enable-background="new 0 0 864 864" xml:space="preserve">
<path fill-rule="evenodd" clip-rule="evenodd" d="M436.579,196.307c6.421,5.693-18.041,27.811-30.052,25.526  c-13.756-2.617-21.292-16.163-17.152-31.242c1.105-4.026,2.423-8.187,4.641-11.644c1.433-2.233,4.983-5.947,7.121-4.888  c2.862,1.941,1.227,6.079,0.799,8.964c-0.518,3.487-2.367,6.754-3.289,10.21c-1.85,6.938,0.509,12.408,6.426,16.33  c6.048,4.008,10.843,0.695,15.448-2.927c2.827-2.223,5.299-4.927,8.248-6.955C430.833,198.263,434,194,436.579,196.307z"/>
<path fill-rule="evenodd" clip-rule="evenodd" d="M502.118,257.812c1.492-3.896,3.768-10.669,6.768-17.102  c0.769-1.649,2.114-4.709,5.831-3.303c3.283,1.593,2.995,4.761,2.633,6.813c-0.769,4.357-3.083,8.416-4.224,12.739  c-1.618,6.132-1.53,12.321,4.945,15.673c6.426,3.328,11.643,0.365,15.568-4.955c2.303-3.12,3.868-6.807,6.316-9.784  c1.071-1.303,3.598-2.112,5.319-1.91c1.008,0.118,2.594,2.759,2.45,4.11c-1.445,13.614-21.387,28.434-31.962,23.196  C507.235,279.063,499,273,502.118,257.812z"/>
<path fill-rule="evenodd" clip-rule="evenodd" d="M471.568,281.011c-5.568,0.989-7.223-1.496-8.688-3.253  C453,257,455.008,266.604,439.224,264.329c-9.224-1.329-5.956-9.063-8.299-14.113c-0.337-0.728,2.15-3.746,3.661-4.047  c1.257-0.25,4.158,1.773,4.339,3.068c1.274,9.089,7.786,8.261,13.539,6.753c6.281-1.646,10.536-0.99,11.087,6.052  C464.106,269.149,466,278,475,271c2.479-1.928,6,2,4.168,4.579C476.517,277.475,473.864,279.37,471.568,281.011z"/>
<path fill-rule="evenodd" clip-rule="evenodd" d="M345.036,186.188c1.221,0.918,2.32,1.48,3.062,2.348  c4.282,5.003,8.708,9.915,12.55,15.244c0.997,1.382,2.352,4.221,0.032,6.279c-1.68,0.942-4.004-1.023-5.156-2.301  c-4.205-4.663-8.149-9.578-11.943-14.586c-0.932-1.23-1.25-3.183-1.201-4.784C342.401,187.663,344.012,186.988,345.036,186.188z"/>
<path fill-rule="evenodd" clip-rule="evenodd" d="M336.109,212.72c2.18,0.49,6.325,1.138,10.237,2.47  c1.184,0.403,2.584,2.907,2.308,4.075c-0.264,1.11-2.61,2.477-4.002,2.435c-4.757-0.145-9.546-0.595-14.221-1.472  c-2.268-0.424-4.309-2.057-6.453-3.142C324,213,327,213,330.579,213.066C331.675,213.087,332.932,212.877,336.109,212.72z"/>
<path fill-rule="evenodd" clip-rule="evenodd" d="M154.593,190.968c-3.153,3.647-19.315,23.132-21.688,27.23  c-8.825,15.239-19.099,30.023-25.274,46.326c-10.392,27.431-18.306,55.82-26.804,83.944c-6.527,21.599-4.423,43.993-5.224,66.142  c-1.167,32.308,1.244,64.479,7.897,95.844c7.003,33.013,16.292,65.333,33.147,95.619c29.3,52.646,64.325,98.443,118.546,128.184  c47.173,25.875,96.39,43.014,150.296,44.723c40.185,1.274,80.176,1.827,119.928-8.426c33.948-8.755,67.426-18.381,97.362-36.479  c18.298-11.062,34.626-25.642,50.922-39.702c28.193-24.329,51.114-52.979,69.438-85.623c19.688-35.078,34.327-71.839,44.293-110.784  c7.214-28.191,6.149-56.687,5.329-85.111c-0.585-20.276-2.121-40.946-6.853-60.568c-5.163-21.416-13.222-42.407-22.354-62.523  c-10.485-23.098-21.88-46.131-35.877-67.201c-18.64-28.061-42.508-52.071-68.426-73.694c-11.716-9.774-23.545-20.022-36.886-27.116  c-32.21-17.125-66.854-28.417-102.239-37.073c-8.643-2.113-12.486-5.065-12.604-14.752c-0.141-11.554-2.104-23.305-4.97-34.539  c-2.342-9.182-11.471-11.954-20.047-7.562c-3.732,1.912-7.359,4.113-10.773,6.548c-18.093,12.908-35.905,26.225-54.278,38.716  c-4.678,3.18-10.924,4.606-16.662,5.561c-12.684,2.112-25.77,2.288-38.214,5.256c-37.236,8.881-72.814,22.269-106.167,41.389  C205.661,142.923,178.219,164.562,154.593,190.968 M313.907,637.006C306.872,632.723,301.45,625.312,297,618  c-1.42-2.333-2-4-0.227-5.319c2.227-1.681,4.567,0.997,5.734,2.415c3.213,3.901,5.424,8.652,8.758,12.425  c5.272,5.968,11.934,8.535,18.734,4.479c6.636-3.959,8.31-11.698,5.661-18.908c-1.341-3.653-3.005-7.253-3.751-11.029  c-0.293-1.479,0.09-5.062,2.384-5.082c2.706-0.98,3.535,1.511,4.049,2.776c2.457,6.048,4.471,12.274,5.666,15.664  C346,637,328.521,645.905,313.907,637.006z M417,630c-3.515,3.72-11.113,6.024-15.521,5.078c-7.624-1.638-11.072-0.302-15.12,6.218  c-5.889,9.485-16.638,10.171-21.464,1.9c1.734-0.496,0.104-2.196,4.876-1.312c8.348,1.546,13.162-3.044,14.242-11.262  c0.67-5.103,2.698-6.892,7.816-4.799c13.845,5.658,17.169,9.177,22.236-6.125c0.249-0.752,2.196-2.251,2.933-2.698  c1.065,0.285,1.374,1.903,2.438,2.188C421,621,418.769,628.128,417,630z M461.614,575.113c-1.935,8.843-12.092,16.046-20.941,14.85  C428.718,588.349,410,565,417.216,563.362c1.784-0.362,5.512,5.103,7.476,7.052c2.757,2.738,5.45,5.54,8.159,8.326  c4.888,5.028,11.29,6.342,16.075,1.864c3.55-3.321,5.837-9.489,6.042-14.498C455.21,560.2,449,549,451.123,547.743  C455,544,464.192,563.327,461.614,575.113z M515.646,582.638l17.521-15.639C535,566,536,567,535.311,569.363  c-5.775,5.265-11.549,10.528-17.323,15.792C516,586,515,586,515.646,582.638z M528.386,600.751  c-0.242-1.189-2.386-1.751-0.727-3.568c6.899-1.339,13.799-2.678,20.699-4.017C552,594,551,596,549.199,597.523  C542.262,598.6,535.323,599.676,528.386,600.751z M599.947,155.318c-6.531,16.465-12.935,32.99-19.926,49.26  c-5.135,11.955-9.035,23.02-5.3,37.019c3.786,14.193,3.236,29.58,4.214,44.468c0.364,5.548,3.171,6.932,8.077,7.388  c3.829,0.356,9.222,2.506,12.987,3.547c-0.312,1.118,2,2-2.611,2.792c-3.352-0.46-7.23,0.208-10.389,0.208c-4,0-10-2-11.474,4.146  c2.236,3.052,4.127,6.458,6.796,9.066c3.34,3.265,7.32,5.876,11.023,8.77C595,325,594.574,325.196,594,326  c-1.939-0.988-6.407-3.363-8.169-4.604c-11.034-7.773-10.601-7.579-17.333,4.473c-7.439,13.318-14.308,27.343-23.961,38.953  c-17.68,21.264-40.776,35.779-65.631,48.011c-16.58,8.16-31.228,7.889-46.73-1.729c-14.506-9-29.429-17.383-44.53-25.352  c-8.605-4.542-11.731-2.748-13.923,6.9c-3.46,15.229-7.802,30.432-9.306,45.886c-1.651,16.965-9.384,27.124-24.858,33.598  c-8.654,3.62-16.445,6.484-25.861,3.747c-16.139-4.69-32.43-8.863-48.682-13.16c-13.356-3.531-19.341,1.118-17.802,14.727  c2.124,18.799,3.49,37.897,8.096,56.131c3.39,13.421,1.744,25.388-1.442,37.956c-7.486,29.521-8.754,59.312-2.913,89.238  c0.999,5.119-0.908,6.562-5.153,7.155c-4.166,0.581-8.507,0.688-12.426,2.02c-3.117,1.058-9.375,2.051-8.542,5.558  C225.248,676.445,227,678,227,678c2,1,4.68,0.604,7.42,0.26c4.758-0.599,9.45-2.026,14.205-2.211  c2.166-0.085,5.157,1.463,6.346,3.231c0.709,1.056-0.855,4.43-2.27,5.953c-2.635,2.839-6.322,4.74-8.787,7.687  c-2.164,2.587-5.915,5.08-4.82,9.159c1.906,2.921,6.765-1.905,10.124-2.936c0.526-0.162,0.921-0.753,1.377-1.144  c8.716-7.457,8.875-7.549,14.757,2.584c15.629,26.926,35.689,48.943,65.579,60.368c2.019,0.771,3.748,2.307,5.611,3.485  c-0.203,0.728-0.405,1.453-0.607,2.18c-2.656-0.436-5.447-0.492-7.945-1.375c-11.038-3.9-22.06-7.867-32.963-12.124  c-42.175-16.466-81.462-36.943-114.205-69.697c-32.875-32.886-54.805-72.471-72.34-114.043  C88.093,521.041,84.122,468.938,82.799,416.59c-1.252-49.484,10.143-95.827,28.671-140.923c3.942-9.596,9.776-18.412,14.685-27.616  c5.22-9.788,10.433-19.58,15.527-29.433c1.22-2.36,3.701-4.521,5.309-6.861c1.049-1.279,2.489-2.957,4.134-4.838  c3.374-3.405,5.728-6.092,7.304-8.208C164.343,192.145,170,186,170,186l-0.164-0.093c16.669-18.453,36.423-33.31,57.41-46.136  c17.824-10.895,37.174-19.421,56.26-28.091c26.949-12.242,55.293-21.357,84.708-23.333c19.391-1.303,33.996-8.678,48.638-20.028  c15.321-11.875,32.134-21.832,48.364-32.52c6.098-4.016,9.718-1.651,10.513,5.082c1.371,11.599,1.906,23.312,3.666,34.844  c1.43,9.369-1.249,19.814,7.984,27.379c11.589,9.496,22.53,19.789,33.615,29.887c6.643,6.051,13.509,10.125,23.269,9.605  c15.58-0.829,31.238-0.473,46.856-0.208C602.519,142.579,604.038,145.003,599.947,155.318z"/>
</svg>