{
"label": "Attributs",
"mapping": {
    "description": "system.description",
    "book_reference": "system.book_reference"
},
"entries": [{
    "id": "Claw (Strength)",
	"name": "Griffe (Force)",
	"description": "",
	"book_reference": "Livre de règles p.28"
},{
    "id": "Eye (Accuracy)",
	"name": "Oeil (Précision)",
	"description": "",
	"book_reference": "Livre de règles p.28"
},{
    "id": "Hair (Vigor)",
	"name": "Poil (Vigueur)",
	"description": "",
	"book_reference": "Livre de règles p.29"
},{
    "id": "Tail (Agility)",
	"name": "Queue (Agilité)",
	"description": "",
	"book_reference": "Livre de règles p.29"
},{
    "id": "Purring (Intelligence)",
	"name": "Ronronnement (Intelligence)",
	"description": "",
	"book_reference": "Livre de règles p.29"
},{
    "id": "Caress (Willpower)",
	"name": "Caresse (Volonté)",
	"description": "",
	"book_reference": "Livre de règles p.29"
},{
    "id": "Whiskers (Intuition)",
	"name": "Vibrisse (Intuition)",
	"description": "",
	"book_reference": "Livre de règles p.29"
},{
    "id": "Pad (Sociability)",
	"name": "Coussinet (Sociabilité)",
	"description": "",
	"book_reference": "Livre de règles p.29"
},{
    "id": "Luck",
	"name": "Chance",
	"description": "",
	"book_reference": "Livre de règles p.29"
}]
}
