{
"label": "Factions",
"mapping": {
    "description": "system.description",
    "book_reference": "system.book_reference"
},
"entries": [{
    "id": "Interventionists",
	"name": "Interventionnistes",
	"description": "",
	"book_reference": "Livre de règles p.86"
},{
    "id": "Progressives",
	"name": "Progressistes",
	"description": "",
	"book_reference": "Livre de règles p.86"
},{
    "id": "Slavers",
	"name": "Esclavagistes",
	"description": "",
	"book_reference": "Livre de règles p.86"
},{
    "id": "Conservatives",
	"name": "Conservateurs",
	"description": "",
	"book_reference": "Livre de règles p.87"
},{
    "id": "Environmentalists",
	"name": "Écologistes",
	"description": "",
	"book_reference": "Livre de règles p.87"
},{
    "id": "Backward-looking ones",
	"name": "Passéistes",
	"description": "",
	"book_reference": "Livre de règles p.87"
},{
    "id": "Nihilists",
	"name": "Nihilistes",
	"description": "",
	"book_reference": "Livre de règles p.88"
},{
    "id": "Defeatists",
	"name": "Défaitistes",
	"description": "",
	"book_reference": "Livre de règles p.88"
},{
    "id": "Forward-thinkers",
	"name": "Avant-gardistes",
	"description": "",
	"book_reference": "Livre de règles p.88"
},{
    "id": "Lazy ones",
	"name": "Paresseux",
	"description": "",
	"book_reference": "Livre de règles p.89"
}]
}
